 Lower transport test / Collaudo inferiore

┌────────┬──────────────┬───────────────────────────┐
│Version │ Release Date │ Release Type              │
├────────┼──────────────┼───────────────────────────┤
│ 1.0.2  │ 26/01/2018   │ modified feature          │
├────────┼──────────────┼───────────────────────────┤
│        │              │                           │
├────────┼──────────────┼───────────────────────────┤
│        │              │                           │
├────────┼──────────────┼───────────────────────────┤
│        │              │                           │
└────────┴──────────────┴───────────────────────────┘

Version 1.0.21 26/01/2018 ECR N°
- Added FW verification
	Added FW vifification before the install, in order to save time
- Modified switches testing
	
- Modified files:
	nomefile
	
